…
nyvtransit = janitor::clean_names(nyvtransit)
```

``` r
select(nyvtransit, line, station_name, station_latitude, station_longitude, route1:route11, entry, vending, entrance_type, ada)
```

    ## # A tibble: 1,868 × 19
    ##    line     station_name station_latitude station_longitude route1 route2 route3
    ##    <chr>    <chr>                   <dbl>             <dbl> <chr>  <chr>  <chr> 
    ##  1 4 Avenue 25th St                  40.7             -74.0 R      <NA>   <NA>  
    ##  2 4 Avenue 25th St                  40.7             -74.0 R      <NA>   <NA>  
    ##  3 4 Avenue 36th St                  40.7             -74.0 N      R      <NA>  
    ##  4 4 Avenue 36th St                  40.7             -74.0 N      R      <NA>  
    ##  5 4 Avenue 36th St                  40.7             -74.0 N      R      <NA>  
    ##  6 4 Avenue 45th St                  40.6             -74.0 R      <NA>   <NA>  
    ##  7 4 Avenue 45th St                  40.6             -74.0 R      <NA>   <NA>  
    ##  8 4 Avenue 45th St                  40.6             -74.0 R      <NA>   <NA>  
    ##  9 4 Avenue 45th St                  40.6             -74.0 R      <NA>   <NA>  
    ## 10 4 Avenue 53rd St                  40.6             -74.0 R      <NA>   <NA>  
    ## # ℹ 1,858 more rows
    ## # ℹ 12 more variables: route4 <chr>, route5 <chr>, route6 <chr>, route7 <chr>,
    ## #   route8 <chr>, route9 <chr>, route10 <chr>, route11 <chr>, entry <chr>,
    ## #   vending <chr>, entrance_type <chr>, ada <lgl>

``` r
nyvtransit %>%
  mutate(
    entry = case_match(entry, "YES" ~ 1, "NO" ~ 0, .default=as.logical(NA))
  )
```

    ## # A tibble: 1,868 × 32
    ##    division line   station_name station_latitude station_longitude route1 route2
    ##    <chr>    <chr>  <chr>                   <dbl>             <dbl> <chr>  <chr> 
    ##  1 BMT      4 Ave… 25th St                  40.7             -74.0 R      <NA>  
    ##  2 BMT      4 Ave… 25th St                  40.7             -74.0 R      <NA>  
    ##  3 BMT      4 Ave… 36th St                  40.7             -74.0 N      R     
    ##  4 BMT      4 Ave… 36th St                  40.7             -74.0 N      R     
    ##  5 BMT      4 Ave… 36th St                  40.7             -74.0 N      R     
    ##  6 BMT      4 Ave… 45th St                  40.6             -74.0 R      <NA>  
    ##  7 BMT      4 Ave… 45th St                  40.6             -74.0 R      <NA>  
    ##  8 BMT      4 Ave… 45th St                  40.6             -74.0 R      <NA>  
    ##  9 BMT      4 Ave… 45th St                  40.6             -74.0 R      <NA>  
    ## 10 BMT      4 Ave… 53rd St                  40.6             -74.0 R      <NA>  
    ## # ℹ 1,858 more rows
    ## # ℹ 25 more variables: route3 <chr>, route4 <chr>, route5 <chr>, route6 <chr>,
    ## #   route7 <chr>, route8 <chr>, route9 <chr>, route10 <chr>, route11 <chr>,
    ## #   entrance_type <chr>, entry <dbl>, exit_only <chr>, vending <chr>,
    ## #   staffing <chr>, staff_hours <chr>, ada <lgl>, ada_notes <chr>,
    ## #   free_crossover <lgl>, north_south_street <chr>, east_west_street <chr>,
    ## #   corner <chr>, entrance_latitude <dbl>, entrance_longitude <dbl>, …
…
